<?xml version="1.0" encoding="UTF-8" standalone="no"?>

<svg
   xmlns="http://www.w3.org/2000/svg"
   width="50mm"
   height="50mm"
   version="1.1"
   id="svg8">
  <g
     id="layer1">
    <path
       style="fill:none;stroke:#600020;stroke-width:20.88062096;stroke-linecap:round;stroke-linejoin:round;stroke-miterlimit:4;stroke-dasharray:none;stroke-opacity:1"
       d="m 50.00000,85.00000 50.00000, 50.00000 v 0 l 50.00000,-50.00000 v 0 0"
       id="path4662"/>
  </g>
</svg>
