<?xml version="1.0" encoding="UTF-8" standalone="no"?>
<svg
   xmlns:dc="http://purl.org/dc/elements/1.1/"
   xmlns:cc="http://creativecommons.org/ns#"
   xmlns:rdf="http://www.w3.org/1999/02/22-rdf-syntax-ns#"
   xmlns:svg="http://www.w3.org/2000/svg"
   xmlns="http://www.w3.org/2000/svg"
   xmlns:sodipodi="http://sodipodi.sourceforge.net/DTD/sodipodi-0.dtd"
   xmlns:inkscape="http://www.inkscape.org/namespaces/inkscape"
   width="12"
   height="12"
   version="1.1"
   id="svg8"
   sodipodi:docname="external-link.svg"
   inkscape:version="0.92.4 (5da689c313, 2019-01-14)">
  <metadata
     id="metadata14">
    <rdf:RDF>
      <cc:Work
         rdf:about="">
        <dc:format>image/svg+xml</dc:format>
        <dc:type
           rdf:resource="http://purl.org/dc/dcmitype/StillImage" />
      </cc:Work>
    </rdf:RDF>
  </metadata>
  <defs
     id="defs12" />
  <sodipodi:namedview
     pagecolor="#ffffff"
     bordercolor="#666666"
     borderopacity="1"
     objecttolerance="10"
     gridtolerance="10"
     guidetolerance="10"
     inkscape:pageopacity="0"
     inkscape:pageshadow="2"
     inkscape:window-width="1920"
     inkscape:window-height="1051"
     id="namedview10"
     showgrid="false"
     inkscape:zoom="19.666667"
     inkscape:cx="-4.220339"
     inkscape:cy="6"
     inkscape:window-x="0"
     inkscape:window-y="29"
     inkscape:window-maximized="0"
     inkscape:current-layer="svg8" />
  <path
     fill="#fff"
     stroke="#36c"
     d="M1.5 4.518h5.982V10.5H1.5z"
     id="path2"
     style="stroke:#600020;stroke-opacity:1" />
  <path
     fill="#36c"
     d="M5.765 1H11v5.39L9.427 7.937l-1.31-1.31L5.393 9.35l-2.69-2.688 2.81-2.808L4.2 2.544z"
     id="path4"
     style="fill:#600020;fill-opacity:1" />
  <path
     fill="#fff"
     d="m9.995 2.004.022 4.885L8.2 5.07 5.32 7.95 4.09 6.723l2.882-2.88-1.85-1.852z"
     id="path6" />
</svg>
